[
    {
        "model-name": "Categories",
        "resource-file": "categories.json",
        "table-name": "categories"
    },
    {
        "model-name": "Customers",
        "resource-file": "customers.json",
        "table-name": "customers"
    },
    {
        "model-name": "Items",
        "resource-file": "items.json",
        "table-name": "items"
    },
    {
        "model-name": "Prices",
        "resource-file": "prices.json",
        "table-name": "prices"
    },
    {
        "model-name": "Suppliers",
        "resource-file": "suppliers.json",
        "table-name": "suppliers"
    },
    {
        "model-name": "SalesOrders",
        "resource-file": "sales_orders.json",
        "table-name": "sales_orders"
    },
    {
        "model-name": "SalesPerson",
        "resource-file": "sales_people.json",
        "table-name": "sales_people"
    },
    {
        "model-name": "SalesPersons",
        "resource-file": "sales_persons.json",
        "table-name": "sales_persons"
    },
    {
        "model-name": "Units",
        "resource-file": "units.json",
        "table-name": "units"
    },
    {
        "model-name": "ItemsStock",
        "resource-file": "items_stocks.json",
        "table-name": "items_stocks"
    },
    {
        "model-name": "ItemsStockIn",
        "resource-file": "items_stock_ins.json",
        "table-name": "items_stock_ins"
    },
    {
        "model-name": "ItemsStockOut",
        "resource-file": "items_stock_outs.json",
        "table-name": "items_stock_outs"
    },
    {
        "model-name": "TermBillings",
        "resource-file": "term_billings.json",
        "table-name": "term_billings"
    },
    {
        "model-name": "SalesOrdersDetails",
        "resource-file": "sales_orders_details.json",
        "table-name": "sales_orders_details"
    },
    {
        "model-name": "PurchaseOrders",
        "resource-file": "purchase_orders.json",
        "table-name": "purchase_orders"
    },
    {
        "model-name": "PurchaseOrdersDetails",
        "resource-file": "purchase_orders_details.json",
        "table-name": "purchase_orders_details"
    },
    {
        "model-name": "DeliveryOrders",
        "resource-file": "delivery_orders.json",
        "table-name": "delivery_orders"
    },
    {
        "model-name": "DeliveryOrdersDetails",
        "resource-file": "delivery_orders_details.json",
        "table-name": "delivery_orders_details"
    },
    {
        "model-name": "Invoices",
        "resource-file": "invoices.json",
        "table-name": "invoices"
    },
    {
        "model-name": "InvoicesDetails",
        "resource-file": "invoices_details.json",
        "table-name": "invoices_details"
    },
    {
        "model-name": "InvoiceDeliveryOrders",
        "resource-file": "invoice_delivery_orders.json",
        "table-name": "invoice_delivery_orders"
    },
    {
        "model-name": "SalesOrdersDp",
        "resource-file": "sales_orders_dps.json",
        "table-name": "sales_orders_dps"
    },
    {
        "model-name": "IncomingInvoices",
        "resource-file": "incoming_invoices.json",
        "table-name": "incoming_invoices"
    },
    {
        "model-name": "IncomingInvoicesDetails",
        "resource-file": "incoming_invoices_details.json",
        "table-name": "incoming_invoices_details"
    }
]